<?xml version="1.0" standalone="no"?>
<!DOCTYPE svg PUBLIC "-//W3C//DTD SVG 20010904//EN"
 "http://www.w3.org/TR/2001/REC-SVG-20010904/DTD/svg10.dtd">
<svg version="1.0" xmlns="http://www.w3.org/2000/svg"
 width="1000.000000pt" height="1000.000000pt" viewBox="0 0 1000.000000 1000.000000"
 preserveAspectRatio="xMidYMid meet">
<metadata>
Created by potrace 1.14, written by Peter Selinger 2001-2017
</metadata>
<g transform="translate(0.000000,1000.000000) scale(0.100000,-0.100000)"
fill="#000000" stroke="none">
<path d="M6427 9744 c-1 -1 -69 -5 -151 -8 -82 -4 -152 -9 -155 -10 -3 -2 -42
-7 -85 -11 -43 -4 -86 -8 -95 -10 -9 -1 -43 -6 -76 -10 -32 -4 -68 -9 -78 -11
-11 -2 -38 -5 -61 -8 -22 -3 -79 -13 -126 -22 -47 -9 -96 -18 -110 -21 -173
-31 -483 -115 -699 -188 -1120 -381 -2088 -1092 -2808 -2066 -70 -93 -264
-384 -297 -444 -9 -16 -25 -43 -35 -60 -10 -16 -29 -50 -43 -75 -14 -25 -35
-63 -48 -85 -43 -76 -194 -381 -205 -415 -1 -3 -12 -27 -24 -55 -37 -81 -116
-281 -160 -405 -59 -165 -163 -516 -177 -599 -3 -14 -11 -53 -19 -86 -18 -74
-52 -246 -60 -300 -3 -22 -10 -65 -15 -95 -5 -30 -12 -75 -15 -100 -3 -25 -7
-54 -9 -65 -2 -11 -7 -54 -11 -95 -3 -41 -8 -86 -10 -100 -4 -30 -15 -166 -21
-265 -5 -81 -5 -569 0 -635 2 -25 7 -94 11 -155 4 -60 8 -117 10 -125 2 -8 6
-44 10 -80 5 -55 39 -277 50 -329 30 -144 40 -190 61 -266 14 -49 27 -99 29
-110 5 -21 74 -223 98 -285 63 -163 183 -396 278 -539 310 -469 683 -775 1237
-1015 212 -92 593 -209 782 -241 19 -3 53 -10 75 -15 39 -8 74 -14 153 -25 20
-3 49 -8 64 -11 14 -3 46 -7 70 -9 67 -6 161 -17 179 -20 128 -24 772 -24
1019 -1 19 2 67 7 105 10 39 4 81 8 95 11 14 2 75 11 135 19 107 16 134 20
185 31 43 9 74 15 106 21 25 4 194 45 324 79 121 31 364 113 539 182 126 50
130 51 386 166 91 40 475 236 543 276 29 17 55 31 57 31 3 0 34 18 70 40 36
22 67 40 70 40 4 0 385 227 497 296 l47 29 87 261 88 261 -44 39 c-24 21 -55
49 -68 62 -22 19 -27 20 -41 9 -9 -8 -50 -33 -91 -57 -41 -23 -89 -51 -106
-60 -17 -10 -62 -37 -99 -59 -37 -23 -69 -41 -71 -41 -2 0 -32 -17 -66 -38
-35 -20 -76 -44 -93 -52 -16 -8 -41 -22 -55 -31 -30 -20 -392 -203 -495 -250
-439 -200 -923 -345 -1320 -394 -27 -4 -60 -8 -73 -10 -165 -27 -732 -27 -907
0 -16 2 -48 7 -70 9 -40 5 -142 21 -200 32 -225 41 -529 152 -720 262 -45 26
-169 108 -191 125 -10 9 -39 32 -64 52 -287 232 -522 596 -656 1015 -38 120
-68 227 -80 290 -3 14 -7 33 -10 42 -13 42 -60 334 -69 428 -4 36 -8 76 -10
90 -5 32 -16 183 -21 285 -4 92 -4 648 0 745 5 104 16 281 21 335 18 210 24
269 30 315 2 19 9 73 15 120 17 131 37 258 56 360 2 14 7 41 10 60 3 19 12 67
21 105 8 39 17 81 19 95 3 14 12 52 21 85 8 33 17 71 20 84 5 32 38 153 73
271 96 325 198 586 340 865 68 133 185 342 200 355 3 3 27 39 55 80 45 69 161
228 174 240 3 3 31 34 61 70 107 128 317 330 436 420 32 25 61 48 64 51 11 12
160 109 253 163 328 193 723 317 1127 354 152 14 634 6 795 -13 17 -2 62 -6
100 -10 39 -3 77 -8 85 -10 8 -2 36 -6 62 -9 26 -3 78 -11 115 -17 37 -6 77
-13 88 -14 11 -2 52 -10 90 -19 39 -8 82 -17 95 -19 102 -19 440 -119 515
-152 17 -8 68 -30 115 -50 254 -109 445 -257 508 -394 32 -69 33 -121 7 -526
-7 -113 -15 -250 -20 -345 -3 -52 -7 -131 -10 -175 -3 -44 -8 -121 -10 -170
l-5 -90 229 0 c126 0 232 2 234 5 5 5 8 25 23 160 3 25 7 56 9 70 2 14 7 45
10 70 7 55 13 88 25 160 20 115 19 110 35 190 2 14 7 36 9 50 5 24 9 45 22
102 3 15 5 30 5 33 0 2 5 19 10 37 5 18 12 46 15 62 14 81 171 671 290 1094
30 106 54 196 54 200 0 8 -109 58 -265 122 -55 23 -109 45 -120 50 -155 67
-616 216 -755 244 -14 3 -34 7 -45 10 -126 30 -198 45 -235 51 -61 10 -79 13
-98 19 -9 3 -42 8 -72 11 -30 3 -62 8 -70 10 -8 2 -40 7 -70 10 -30 3 -62 8
-70 10 -8 2 -51 6 -95 10 -44 3 -96 8 -115 10 -124 13 -722 29 -733 19z"/>
</g>
</svg>
